<?xml version="1.0" encoding="utf-8"?>
<svg version="1.1" xmlns="http://www.w3.org/2000/svg" xmlns:xlink="http://www.w3.org/1999/xlink" x="0px" y="0px"
	 viewBox="0 0 25 25" style="enable-background:new 0 0 25 25;" xml:space="preserve">
<style type="text/css">
	.st0{fill:#ea5755;}
</style>
<g id="Layer_1">
</g>
<g id="Layer_2">
	<polygon class="st0" points="17.3,15.3 25,9.7 15.5,9.7 12.5,0.6 9.5,9.7 0,9.7 7.7,15.3 4.8,24.4 12.5,18.8 20.2,24.4 	"/>
</g>
</svg>
